Ames Housing - Part 1 - Exploratory Data Analysis | Nitin Gupta
…
Basement Features

There is one property (Id = 2121) where all the basement features are NA. TotalBsmtSF is replaced by 0.

Now there are 79 properties which have no basement (TotalBsmtSF = 0). All other basement features having NA values are changed to None.

Since qualitative features do not have the same distribution across neighborhoods, any remaining NA values are imputed to be the most common value in that Neighborhood.

# A tibble: 1 x 13
     Id Neighborhood BsmtQual BsmtCond BsmtExposure BsmtFinType1 BsmtFinSF1 BsmtFinType2 BsmtFinSF2 BsmtUnfSF TotalBsmtSF BsmtFullBath BsmtHalfBath
  <dbl> <chr>        <chr>    <chr>    <chr>        <chr>             <dbl> <chr>             <dbl>     <dbl>       <dbl>        <dbl>        <dbl>
1  2121 BrkSide      <NA>     <NA>     <NA>         <NA>                 NA <NA>                 NA        NA          NA           NA           NA

# A tibble: 79 x 13
      Id Neighborhood BsmtQual BsmtCond BsmtExposure BsmtFinType1 BsmtFinSF1 BsmtFinType2 BsmtFinSF2 BsmtUnfSF TotalBsmtSF BsmtFullBath BsmtHalfBath
   <dbl> <chr>        <chr>    <chr>    <chr>        <chr>             <dbl> <chr>             <dbl>     <dbl>       <dbl>        <dbl>        <dbl>
 1    18 Sawyer       <NA>     <NA>     <NA>         <NA>                  0 <NA>                  0         0           0            0            0
 2    40 Edwards      <NA>     <NA>     <NA>         <NA>                  0 <NA>                  0         0           0            0            0
 3    91 NAmes        <NA>     <NA>     <NA>         <NA>                  0 <NA>                  0         0           0            0            0
 4   103 SawyerW      <NA>     <NA>     <NA>         <NA>                  0 <NA>                  0         0           0            0            0
 5   157 NAmes        <NA>     <NA>     <NA>         <NA>                  0 <NA>                  0         0           0            0            0
 6   183 Edwards      <NA>     <NA>     <NA>         <NA>                  0 <NA>                  0         0           0            0            0
 7   260 OldTown      <NA>     <NA>     <NA>         <NA>                  0 <NA>                  0         0           0            0            0
 8   343 NAmes        <NA>     <NA>     <NA>         <NA>                  0 <NA>                  0         0           0            0            0
 9   363 Edwards      <NA>     <NA>     <NA>         <NA>                  0 <NA>                  0         0           0            0            0
10   372 ClearCr      <NA>     <NA>     <NA>         <NA>                  0 <NA>                  0         0           0            0            0
# ... with 69 more rows
…
Fireplace Features

There are 1420 properties that have no fireplaces. FireplaceQu is changed to None.

# A tibble: 1,420 x 4
      Id Neighborhood Fireplaces FireplaceQu
   <dbl> <chr>             <dbl> <chr>      
 1     1 CollgCr               0 <NA>       
 2     6 Mitchel               0 <NA>       
 3    11 Sawyer                0 <NA>       
 4    13 Sawyer                0 <NA>       
 5    16 BrkSide               0 <NA>       
 6    18 Sawyer                0 <NA>       
 7    19 SawyerW               0 <NA>       
 8    20 NAmes                 0 <NA>       
 9    27 NAmes                 0 <NA>       
10    30 BrkSide               0 <NA>       
# ... with 1,410 more rows
…
Garage Features

GarageYrBlt where NA is set to YearBuilt.

There are 157 properties where the property has no garage. In these records, GarageType, GarageFinish, GarageQual and GarageCond are recorded as None.

Since qualitative features do not have the same distribution across neighborhoods, any remaining NA values are imputed to be the most common or median value in the Neighborhood by GarageType.

# A tibble: 157 x 9
      Id Neighborhood GarageType GarageYrBlt GarageFinish GarageCars GarageArea GarageQual GarageCond
   <dbl> <chr>        <chr>            <dbl> <chr>             <dbl>      <dbl> <chr>      <chr>     
 1    40 Edwards      <NA>              1955 <NA>                  0          0 <NA>       <NA>      
 2    49 OldTown      <NA>              1920 <NA>                  0          0 <NA>       <NA>      
 3    79 Sawyer       <NA>              1968 <NA>                  0          0 <NA>       <NA>      
 4    89 IDOTRR       <NA>              1915 <NA>                  0          0 <NA>       <NA>      
 5    90 CollgCr      <NA>              1994 <NA>                  0          0 <NA>       <NA>      
 6   100 NAmes        <NA>              1959 <NA>                  0          0 <NA>       <NA>      
 7   109 IDOTRR       <NA>              1919 <NA>                  0          0 <NA>       <NA>      
 8   126 IDOTRR       <NA>              1935 <NA>                  0          0 <NA>       <NA>      
 9   128 OldTown      <NA>              1930 <NA>                  0          0 <NA>       <NA>      
10   141 NAmes        <NA>              1971 <NA>                  0          0 <NA>       <NA>      
# ... with 147 more rows
…
Masonry Features

There is one property (Id = 2611) where MasVnrArea = 198 but MasVnrType = NA. Impute MasVnrType to be most common value in the neighborhood where MasVnrArea > 0.

Impute NA values in MasVnrType to be the most common values by Neighborhood and YearRemodAdd.

Impute NA values in MasVnrArea to be the median values by Neighborhood and MasVnrType.

# A tibble: 1 x 4
     Id Neighborhood MasVnrType MasVnrArea
  <dbl> <chr>        <chr>           <dbl>
1  2611 Mitchel      <NA>              198

# A tibble: 23 x 4
      Id Neighborhood MasVnrType MasVnrArea
   <dbl> <chr>        <chr>           <dbl>
 1   235 Gilbert      <NA>               NA
 2   530 Crawfor      <NA>               NA
 3   651 Somerst      <NA>               NA
 4   937 SawyerW      <NA>               NA
 5   974 Somerst      <NA>               NA
 6   978 Somerst      <NA>               NA
 7  1244 NridgHt      <NA>               NA
 8  1279 CollgCr      <NA>               NA
 9  1692 Gilbert      <NA>               NA
10  1707 Somerst      <NA>               NA
# ... with 13 more rows

# A tibble: 23 x 4
      Id Neighborhood MasVnrType MasVnrArea
   <dbl> <chr>        <chr>           <dbl>
 1   235 Gilbert      None               NA
 2   530 Crawfor      None               NA
 3   651 Somerst      None               NA
 4   937 SawyerW      None               NA
 5   974 Somerst      Stone              NA
 6   978 Somerst      None               NA
 7  1244 NridgHt      Stone              NA
 8  1279 CollgCr      BrkFace            NA
 9  1692 Gilbert      None               NA
10  1707 Somerst      Stone              NA
# ... with 13 more rows
…
Pool Features

Change values in PoolQC to None if the property has no pool

Impute NA values in remaining PoolQC to the most common value in the Neighborhood in the properties that have a pool.

# A tibble: 2,906 x 4
      Id Neighborhood PoolArea PoolQC
   <dbl> <chr>           <dbl> <chr> 
 1     1 CollgCr             0 <NA>  
 2     2 Veenker             0 <NA>  
 3     3 CollgCr             0 <NA>  
 4     4 Crawfor             0 <NA>  
 5     5 NoRidge             0 <NA>  
 6     6 Mitchel             0 <NA>  
 7     7 Somerst             0 <NA>  
 8     8 NWAmes              0 <NA>  
 9     9 OldTown             0 <NA>  
10    10 BrkSide             0 <NA>  
# ... with 2,896 more rows
…
